^C:\USERS\ACER ASPIRE E5-571G\DOCUMENTS\VISUAL STUDIO 2015\PROJECTS\КВАДРАТНОЕ УРАВНЕНИЕ\КВАДРАТНОЕ УРАВНЕНИЕ\SOURCE.CPP
C:\USERS\ACER ASPIRE E5-571G\DOCUMENTS\VISUAL STUDIO 2015\PROJECTS\квадратное уравнение\квадратное уравнение\DEBUG\VC140.PDB
C:\USERS\ACER ASPIRE E5-571G\DOCUMENTS\VISUAL STUDIO 2015\PROJECTS\квадратное уравнение\квадратное уравнение\DEBUG\VC140.IDB
C:\USERS\ACER ASPIRE E5-571G\DOCUMENTS\VISUAL STUDIO 2015\PROJECTS\квадратное уравнение\квадратное уравнение\DEBUG\SOURCE.OBJ
