﻿Сборка начата 03.12.2015 1:07:57.
     1>Проект "C:\Users\Acer Aspire E5-571G\Documents\Visual Studio 2015\Projects\квадратное уравнение\квадратное уравнение\квадратное уравнение.vcxproj" в узле 2 (целевые объекты Build).
     1>ClCompile:
         C:\Program Files (x86)\Microsoft Visual Studio 14.0\VC\bin\CL.exe /c /ZI /nologo /W3 /WX- /sdl /Od /Oy- /D _UNICODE /D UNICODE /Gm /EHsc /RTC1 /MDd /GS /fp:precise /Zc:wchar_t /Zc:forScope /Zc:inline /Fo"Debug\\" /Fd"Debug\vc140.pdb" /Gd /TP /analyze- /errorReport:prompt Source.cpp
         Source.cpp
     1>c:\users\acer aspire e5-571g\documents\visual studio 2015\projects\квадратное уравнение\квадратное уравнение\source.cpp(6): warning C4101: x1: неиспользованная локальная переменная
     1>c:\users\acer aspire e5-571g\documents\visual studio 2015\projects\квадратное уравнение\квадратное уравнение\source.cpp(6): warning C4101: x2: неиспользованная локальная переменная
       Link:
         C:\Program Files (x86)\Microsoft Visual Studio 14.0\VC\bin\link.exe /ERRORREPORT:PROMPT /OUT:"C:\Users\Acer Aspire E5-571G\Documents\Visual Studio 2015\Projects\квадратное уравнение\Debug\квадратное уравнение.exe" /INCREMENTAL /NOLOGO kernel32.lib user32.lib gdi32.lib winspool.lib comdlg32.lib advapi32.lib shell32.lib ole32.lib oleaut32.lib uuid.lib odbc32.lib odbccp32.lib /MANIFEST /MANIFESTUAC:"level='asInvoker' uiAccess='false'" /manifest:embed /Debug /PDB:"C:\Users\Acer Aspire E5-571G\Documents\Visual Studio 2015\Projects\квадратное уравнение\Debug\квадратное уравнение.pdb" /TLBID:1 /DYNAMICBASE /NXCOMPAT /IMPLIB:"C:\Users\Acer Aspire E5-571G\Documents\Visual Studio 2015\Projects\квадратное уравнение\Debug\квадратное уравнение.lib" /MACHINE:X86 Debug\Source.obj
         квадратное уравнение.vcxproj -> C:\Users\Acer Aspire E5-571G\Documents\Visual Studio 2015\Projects\квадратное уравнение\Debug\квадратное уравнение.exe
     1>Сборка проекта "C:\Users\Acer Aspire E5-571G\Documents\Visual Studio 2015\Projects\квадратное уравнение\квадратное уравнение\квадратное уравнение.vcxproj" завершена (целевые объекты Build).

Сборка успешно завершена.

Затраченное время: 00:00:01.05
